X-ray pt id,Layer,Fixed layer 1,Fixed layer 2,x,y,x low,x high,y low,y high,x-ray residual,xray residual error,fit result,nEntries,Constant,Constant error,Mean,Mean error,Sigma,Sigma error
5C,4,1,2,-43.6158,107.716,-93.6158,6.3842,57.7165,157.716,-1.53146,0.448999,0,812,35.8261,1.74085,-0.622363,0.0301399,0.756739,0.0239647
5C,2,1,4,-43.6158,107.127,-93.6158,6.3842,57.1265,157.127,0.510487,0.149666,0,1236,132.874,5.11402,0.193747,0.00985173,0.313972,0.00736702
5C,1,2,4,-43.6158,108.365,-93.6158,6.3842,58.3647,158.365,-0.76573,0.224499,0,1214,96.806,3.76927,-0.295805,0.0136294,0.428687,0.0105164
5D2,4,2,3,-20.3218,170.634,-70.3218,29.6782,120.634,220.634,1.22755,0.293939,0,1527,89.0555,3.0729,0.831047,0.0168927,0.593799,0.0130371
5D2,3,2,4,-20.3218,171.932,-70.3218,29.6782,121.932,221.932,-0.613775,0.146969,0,1635,180.205,5.88278,-0.408173,0.00856996,0.321285,0.00639079
5D2,2,3,4,-20.3218,170.774,-70.3218,29.6782,120.774,220.774,1.22755,0.293939,0,1125,65.7912,2.67136,0.821077,0.0198285,0.588251,0.0156419
7C,3,1,2,551.166,760.69,501.166,601.166,710.69,810.69,-0.26346,0.293939,0,2224,141.574,4.23704,-0.504429,0.0146203,0.566348,0.0140228
7C,4,1,2,551.166,760.358,501.166,601.166,710.358,810.358,0.02754,0.448999,0,1842,81.4572,2.85896,-0.463626,0.0259624,0.801479,0.0295315
7C,2,1,3,551.166,760.887,501.166,601.166,710.887,810.887,0.13173,0.146969,0,1824,216.188,6.62673,0.25427,0.00782236,0.312155,0.00611767
7C,4,1,3,551.166,759.963,501.166,601.166,709.963,809.963,0.42273,0.224499,0,1955,190.243,5.6505,0.31159,0.00910165,0.375017,0.00702663
7C,2,1,4,551.166,761.028,501.166,601.166,711.028,811.028,-0.0091802,0.149666,0,1771,221.594,6.86194,0.162431,0.00740974,0.293441,0.00562835
7C,3,1,4,551.166,760.709,501.166,601.166,710.709,810.709,-0.28182,0.149666,0,2273,332.026,9.12204,-0.19585,0.00563663,0.251311,0.00435698
7C,1,2,3,551.166,761.614,501.166,601.166,711.614,811.614,-0.26346,0.293939,0,2160,140.013,4.1983,-0.509064,0.0139033,0.549834,0.012594
7C,4,2,3,551.166,759.832,501.166,601.166,709.832,809.832,0.55446,0.293939,0,1899,135.204,4.33112,0.581899,0.0143167,0.51858,0.0137787
7C,1,2,4,551.166,761.337,501.166,601.166,711.337,811.337,0.01377,0.224499,0,1723,149.618,4.74519,-0.250874,0.010915,0.420961,0.0085241
7C,3,2,4,551.166,760.704,501.166,601.166,710.704,810.704,-0.27723,0.146969,0,2000,282.173,8.3748,-0.27392,0.00648115,0.264345,0.00538418
7C,1,3,4,551.166,760.506,501.166,601.166,710.506,810.506,0.84546,0.448999,0,2038,99.4187,3.08179,0.605218,0.0195466,0.73898,0.0182624
7C,2,3,4,551.166,760.465,501.166,601.166,710.465,810.465,0.55446,0.293939,0,1152,80.6042,3.25369,0.575613,0.0179588,0.527094,0.0162667
8A,3,1,2,135.72,750.64,85.72,185.72,700.64,800.64,-0.45054,0.293939,0,2532,165.8,4.55845,-0.570365,0.0129636,0.554275,0.0117844
8A,4,1,2,135.72,751.174,85.72,185.72,701.174,801.174,-0.22754,0.448999,0,1692,74.387,2.60545,-0.475512,0.0252519,0.819047,0.0257843
8A,2,1,3,135.72,749.884,85.72,185.72,699.884,799.884,0.22527,0.146969,0,2577,333.436,8.77575,0.291708,0.00617061,0.284244,0.0051211
8A,4,1,3,135.72,750.498,85.72,185.72,700.498,800.498,0.44827,0.224499,0,2163,217.319,6.25536,0.374773,0.008652,0.364127,0.00716359
8A,2,1,4,135.72,750.033,85.72,185.72,700.033,800.033,0.0758467,0.149666,0,2244,290.664,7.98647,0.171887,0.00644686,0.28715,0.00498713
8A,3,1,4,135.72,750.488,85.72,185.72,700.488,800.488,-0.298847,0.149666,0,2595,383.769,9.82643,-0.246894,0.00524971,0.250496,0.00406151
8A,1,2,3,135.72,750.026,85.72,185.72,700.026,800.026,-0.45054,0.293939,0,2480,166.062,4.58454,-0.566821,0.012706,0.543926,0.0113881
8A,4,2,3,135.72,750.272,85.72,185.72,700.272,800.272,0.67354,0.293939,0,1558,113.675,3.91183,0.666347,0.0144645,0.503163,0.0126473
8A,1,2,4,135.72,749.689,85.72,185.72,699.689,799.689,-0.11377,0.224499,0,2032,178.723,5.28048,-0.25308,0.010151,0.417389,0.0083103
8A,3,2,4,135.72,750.526,85.72,185.72,700.526,800.526,-0.33677,0.146969,0,2354,335.296,9.07673,-0.328347,0.00573142,0.25864,0.0044989
8A,1,3,4,135.72,748.678,85.72,185.72,698.678,798.678,0.89654,0.448999,0,2785,141.13,3.82424,0.735722,0.0176709,0.733593,0.0185123
8A,2,3,4,135.72,749.435,85.72,185.72,699.435,799.435,0.67354,0.293939,0,2398,175.764,4.91272,0.658558,0.0119427,0.503965,0.0107946
8B,3,1,2,27.0514,684.71,-22.9486,77.0514,634.71,734.71,-0.75845,0.293939,0,1227,88.9391,3.47868,-0.688062,0.0154515,0.479527,0.0126919
8B,4,1,2,27.0514,684.824,-22.9486,77.0514,634.824,734.824,-0.42145,0.448999,0,1935,94.2297,3.01863,-0.620129,0.018757,0.700674,0.01641
8B,2,1,3,27.0514,684.217,-22.9486,77.0514,634.217,734.217,0.379225,0.146969,0,2107,276.236,7.9505,0.343824,0.00638186,0.27173,0.00482359
8B,4,1,3,27.0514,683.687,-22.9486,77.0514,633.687,733.687,0.716225,0.224499,0,2409,238.256,6.44931,0.414632,0.00825164,0.370582,0.00667885
8B,2,1,4,27.0514,684.456,-22.9486,77.0514,634.456,734.456,0.140483,0.149666,0,2064,280.477,8.10252,0.206618,0.00620321,0.263595,0.0046257
8B,3,1,4,27.0514,684.429,-22.9486,77.0514,634.429,734.429,-0.477483,0.149666,0,2193,320.425,8.94898,-0.282214,0.00575691,0.25235,0.00446044
8B,1,2,3,27.0514,685.24,-22.9486,77.0514,635.24,735.24,-0.75845,0.293939,0,1569,107.588,3.70514,-0.680875,0.014416,0.507412,0.0116786
8B,4,2,3,27.0514,683.308,-22.9486,77.0514,633.308,733.308,1.09545,0.293939,0,1452,102.275,3.69715,0.756694,0.0154339,0.509918,0.0136316
8B,1,2,4,27.0514,684.693,-22.9486,77.0514,634.693,734.693,-0.210725,0.224499,0,1403,134.435,4.83069,-0.29323,0.0107047,0.364498,0.00834112
8B,3,2,4,27.0514,684.5,-22.9486,77.0514,634.5,734.5,-0.547725,0.146969,0,1634,222.659,7.1828,-0.38231,0.0072071,0.273111,0.00561623
8B,1,3,4,27.0514,683.05,-22.9486,77.0514,633.05,733.05,1.43245,0.448999,0,2437,124.326,3.5819,0.818931,0.0175564,0.704171,0.0171721
8B,2,3,4,27.0514,683.501,-22.9486,77.0514,633.501,733.501,1.09545,0.293939,0,2495,176.537,4.89974,0.747742,0.0121248,0.513755,0.0111342
8C,3,1,2,-44.2437,748.564,-94.2437,5.7563,698.564,798.564,-0.44146,0.293939,0,2455,165.716,4.65753,-0.596326,0.0126301,0.530413,0.0114861
8C,4,1,2,-44.2437,748.335,-94.2437,5.7563,698.335,798.335,-0.19046,0.448999,0,2241,97.5409,2.95988,-0.508916,0.0214623,0.814416,0.0212117
8C,2,1,3,-44.2437,748.569,-94.2437,5.7563,698.569,798.569,0.22073,0.146969,0,2539,321.464,8.35658,0.307263,0.00618261,0.291082,0.00481211
8C,4,1,3,-44.2437,747.673,-94.2437,5.7563,697.673,797.673,0.47173,0.224499,0,2095,209.901,6.13052,0.412795,0.00886269,0.367433,0.00738174
8C,2,1,4,-44.2437,748.727,-94.2437,5.7563,698.727,798.727,0.0634867,0.149666,0,2236,280.929,7.72947,0.172848,0.00657939,0.293189,0.00499745
8C,3,1,4,-44.2437,748.437,-94.2437,5.7563,698.437,798.437,-0.314487,0.149666,0,2526,369.746,9.50062,-0.263987,0.00532629,0.25433,0.00401547
8C,1,2,3,-44.2437,749.46,-94.2437,5.7563,699.46,799.46,-0.44146,0.293939,0,2603,176.288,4.76279,-0.611727,0.0119145,0.527513,0.0104547
8C,4,2,3,-44.2437,747.453,-94.2437,5.7563,697.453,797.453,0.69246,0.293939,0,1548,108.6,3.73569,0.734787,0.015235,0.528844,0.0133885
8C,1,2,4,-44.2437,749.114,-94.2437,5.7563,699.114,799.114,-0.09523,0.224499,0,1999,174.205,5.21855,-0.265252,0.0102584,0.416068,0.00838168
8C,3,2,4,-44.2437,748.469,-94.2437,5.7563,698.469,798.469,-0.34623,0.146969,0,2314,324.545,8.76107,-0.351165,0.00584159,0.265219,0.00448347
8C,1,3,4,-44.2437,748.076,-94.2437,5.7563,698.076,798.076,0.94346,0.448999,0,2663,140.67,3.84296,0.825774,0.0158581,0.67812,0.0150205
8C,2,3,4,-44.2437,748.098,-94.2437,5.7563,698.098,798.098,0.69246,0.293939,0,2345,166.568,4.69059,0.706999,0.0124015,0.521151,0.0111186
9A,3,1,2,-538.05,737.12,-588.05,-488.05,687.12,787.12,-0.84254,0.293939,0,2317,151.847,4.37514,-0.772892,0.0134015,0.54806,0.0120753
9A,4,1,2,-538.05,737.784,-588.05,-488.05,687.784,787.784,-1.00254,0.448999,0,2219,99.9418,3.08033,-0.672788,0.0211048,0.778375,0.0211324
9A,2,1,3,-538.05,736.038,-588.05,-488.05,686.038,786.038,0.42127,0.146969,0,2267,286.618,7.94534,0.379485,0.00671606,0.294381,0.00545583
9A,4,1,3,-538.05,736.52,-588.05,-488.05,686.52,786.52,0.26127,0.224499,0,2504,249.254,6.73829,0.492237,0.00842827,0.371949,0.00736401
9A,2,1,4,-538.05,736.125,-588.05,-488.05,686.125,786.125,0.33418,0.149666,0,1695,206.018,6.47284,0.212,0.00781991,0.305353,0.00589777
9A,3,1,4,-538.05,736.451,-588.05,-488.05,686.451,786.451,-0.17418,0.149666,0,1944,296.591,8.93044,-0.331838,0.00609817,0.244684,0.00507507
9A,1,2,3,-538.05,736.638,-588.05,-488.05,686.638,786.638,-0.84254,0.293939,0,2309,151.066,4.35025,-0.779718,0.013616,0.554628,0.0123733
9A,4,2,3,-538.05,736.098,-588.05,-488.05,686.098,786.098,0.68254,0.293939,0,2336,170.81,4.89316,0.870321,0.0124299,0.507354,0.011753
9A,1,2,4,-538.05,736.296,-588.05,-488.05,686.296,786.296,-0.50127,0.224499,0,2188,186.031,5.25469,-0.332464,0.00993224,0.429472,0.00783982
9A,3,2,4,-538.05,736.618,-588.05,-488.05,686.618,786.618,-0.34127,0.146969,0,1923,285.203,8.85445,-0.440987,0.00659302,0.252193,0.00598391
9A,1,3,4,-538.05,735.272,-588.05,-488.05,685.272,785.272,0.52254,0.448999,0,1611,78.7293,2.84255,0.997157,0.0244325,0.750791,0.0260629
9A,2,3,4,-538.05,735.776,-588.05,-488.05,685.776,785.776,0.68254,0.293939,0,2283,171.963,5.02071,0.879757,0.0122015,0.487445,0.0116222
11B,3,1,2,25.3521,991.933,-24.6479,75.3521,941.933,1041.93,-0.35845,0.293939,0,173,14.1763,1.43245,-0.489495,0.0350594,0.425866,0.0261026
11B,4,1,2,25.3521,991.884,-24.6479,75.3521,941.884,1041.88,-0.06145,0.448999,0,279,16.5089,1.37743,-0.312624,0.0411084,0.588266,0.0357998
11B,2,1,3,25.3521,991.803,-24.6479,75.3521,941.803,1041.8,0.179225,0.146969,0,312,55.0151,4.0551,0.274496,0.0122959,0.204792,0.00904162
11B,4,1,3,25.3521,991.347,-24.6479,75.3521,941.347,1041.35,0.476225,0.224499,0,334,36.1016,2.61992,0.438627,0.0199281,0.335106,0.0157118
11B,2,1,4,25.3521,991.962,-24.6479,75.3521,941.962,1041.96,0.0204833,0.149666,0,235,40.1037,3.39182,0.116371,0.0146108,0.212078,0.0106294
11B,3,1,4,25.3521,991.892,-24.6479,75.3521,941.892,1041.89,-0.317483,0.149666,0,265,46.1335,3.72393,-0.298052,0.0136458,0.2074,0.010361
11B,1,2,3,25.3521,992.389,-24.6479,75.3521,942.389,1042.39,-0.35845,0.293939,0,243,20.7036,1.76283,-0.483362,0.0288845,0.415893,0.0219839
11B,4,2,3,25.3521,991.168,-24.6479,75.3521,941.168,1041.17,0.65545,0.293939,0,1306,103.629,3.91006,0.685768,0.0138144,0.443897,0.0114187
11B,1,2,4,25.3521,992.062,-24.6479,75.3521,942.062,1042.06,-0.030725,0.224499,0,155,17.0358,1.78102,-0.125437,0.027557,0.323237,0.0196739
11B,3,2,4,25.3521,991.903,-24.6479,75.3521,941.903,1041.9,-0.327725,0.146969,0,882,135.42,5.96989,-0.341153,0.00848251,0.235846,0.0063913
11B,1,3,4,25.3521,991.079,-24.6479,75.3521,941.079,1041.08,0.95245,0.448999,0,293,16.4445,1.31616,0.907366,0.0438055,0.650192,0.0389755
11B,2,3,4,25.3521,991.327,-24.6479,75.3521,941.327,1041.33,0.65545,0.293939,0,1346,110.38,4.08139,0.695711,0.0130071,0.428253,0.010513
